Chapter 7 Conclusion | eia_data_analysis
…
#https://www.eia.gov/electricity/data/browser/#/topic/0?freq=M&start=200101&end=202108&ctype=linechart&ltype=pin&pin=&maptype=0
df <- read.csv('data/raw/monthly_fuel_generation_by_state_full.csv')
df$fuel <- trimws(df$fuel) 
df$date <- as.Date(df$date)
df[is.na(df$thousand_megawatthours),]$thousand_megawatthours <- 0
df$fuel <- gsub(" ", "_", df$fuel)
df$fuel <- gsub("-", "_", df$fuel)

way to view the n/a columns for dates

test <- df %>% pivot_wider(id_cols = c(state, fuel), names_from= date, values_from = thousand_megawatthours)
test

## # A tibble: 744 × 250
##    state  fuel  `2021-08-01` `2021-07-01` `2021-06-01` `2021-05-01` `2021-04-01` `2021-03-01` `2021-02-01`
##    <chr>  <chr>        <dbl>        <dbl>        <dbl>        <dbl>        <dbl>        <dbl>        <dbl>
##  1 USA-AL coal        2998.        2961.        2019.       1888.        1584.        2279.         2400. 
##  2 USA-AK coal          70.6         83.0         74.7        68.5         41.4         66.3          62.1
##  3 USA-AZ coal        1600.        1455.        1404.        986.         773.         564.         1169. 
##  4 USA-AR coal        2878.        2757.        2056.       1274.         767.        1337.         1936. 
##  5 USA-CA coal          25.1         25.6         26.1        24.8         25.9         28.1          25.2
##  6 USA-CO coal        2334.        2404.        2113.       1401.        1620.        2050.         2224. 
##  7 USA-CT coal           0            0            0          -1.12        -1.22        -2.21        115. 
##  8 USA-DE coal          55.5         53.4         27.9        -2.53         9.54        74.8          47.7
##  9 USA-FL coal        2159.        1770.        1918.       1873.        1503.        1518.         1596. 
## 10 USA-GA coal        3202.        2767.        2739.       1460.         865.         677.         2718. 
## # … with 734 more rows, and 241 more variables: 2021-01-01 <dbl>, 2020-12-01 <dbl>, 2020-11-01 <dbl>,
## #   2020-10-01 <dbl>, 2020-09-01 <dbl>, 2020-08-01 <dbl>, 2020-07-01 <dbl>, 2020-06-01 <dbl>, 2020-05-01 <dbl>,
## #   2020-04-01 <dbl>, 2020-03-01 <dbl>, 2020-02-01 <dbl>, 2020-01-01 <dbl>, 2019-12-01 <dbl>, 2019-11-01 <dbl>,
## #   2019-10-01 <dbl>, 2019-09-01 <dbl>, 2019-08-01 <dbl>, 2019-07-01 <dbl>, 2019-06-01 <dbl>, 2019-05-01 <dbl>,
## #   2019-04-01 <dbl>, 2019-03-01 <dbl>, 2019-02-01 <dbl>, 2019-01-01 <dbl>, 2018-12-01 <dbl>, 2018-11-01 <dbl>,
## #   2018-10-01 <dbl>, 2018-09-01 <dbl>, 2018-08-01 <dbl>, 2018-07-01 <dbl>, 2018-06-01 <dbl>, 2018-05-01 <dbl>,
## #   2018-04-01 <dbl>, 2018-03-01 <dbl>, 2018-02-01 <dbl>, 2018-01-01 <dbl>, 2017-12-01 <dbl>, 2017-11-01 <dbl>, …

View which fuel types are missing for each state

test2 <- df %>% group_by(state, fuel) %>% summarize(total_thousand_mwh = sum(thousand_megawatthours)) %>% pivot_wider(id_cols = c(state), names_from= fuel, values_from = total_thousand_mwh)
test2

## # A tibble: 50 × 20
## # Groups:   state [50]
##    state  all_solar     coal conventional_hydroelectric natural_gas   other other_biomass other_gases `other_renewabl…
##    <chr>      <dbl>    <dbl>                      <dbl>       <dbl>   <dbl>         <dbl>       <dbl>            <dbl>
##  1 USA-AK      26.4   13031.                     30794.      70596.   -22.2          473.        5.40            1846.
##  2 USA-AL      45.2 1125527.                    196068.     774498.  1595.           550.     2682.             70816.
##  3 USA-AR    1332.   527850.                     67318.     248338.   585.          1411.       NA              32714.
##  4 USA-AZ   52434.   750190.                    141540.     656740.  2838.           834.       NA              48860.
##  5 USA-CA  267832.    29128.                    618822.    2129740. 13147.         52140.    32926.            751219.
##  6 USA-CO   11312.   664850.                     34529.     258381.   786.          1201.       15.5           117353.
##  7 USA-CT    4281.    41147.                      8663.     279473. 14041.         13932.       29.7            16498.
##  8 USA-DE    1180.    49192.                        NA       78563.    16.8         1283.     5907.              1821.
##  9 USA-FL   24775.  1037854.                      4133.    2584653. 64321.         48265.      153.            113078.
## 10 USA-GA    7448.  1185176.                     65448.     631582.  1325.          4199.       NA              98044.
## # … with 40 more rows, and 11 more variables: petroleum_liquids <dbl>, small_scale_solar_photovoltaic <dbl>,
## #   wind <dbl>, wood_and_wood_derived_fuels <dbl>, all_utility_scale_solar <dbl>, nuclear <dbl>,
## #   utility_scale_photovoltaic <dbl>, hydro_electric_pumped_storage <dbl>, petroleum_coke <dbl>,
## #   utility_scale_thermal <dbl>, geothermal <dbl>
…
