Chapter 3 Data transformation | U.S. Clean Energy Industry Analysis
…
            U.S. Clean Energy Industry Analysis

Chapter 3 Data transformation

Correcting Date format in Financial Data

## # A tibble: 9,036 x 2
##    Day        `Cost per barrel`
##    <chr>                  <dbl>
##  1 11/08/2021              82.0
##  2 11/05/2021              81.2
##  3 11/04/2021              78.9
##  4 11/03/2021              80.8
##  5 11/02/2021              83.9
##  6 11/01/2021              84.1
##  7 10/29/2021              83.5
##  8 10/28/2021              82.8
##  9 10/27/2021              82.7
## 10 10/26/2021              85.6
## # ... with 9,026 more rows
…
